^C:\USERS\MATZEE\DOCUMENTS\VISUAL STUDIO 2010\PROJECTS\TICTACTOE_V1.0\TICTACTOE_V1.0\FORMABOUT.RESX
C:\WINDOWS\ASSEMBLY\PUBPOL39.DAT
^C:\USERS\MATZEE\DOCUMENTS\VISUAL STUDIO 2010\PROJECTS\TICTACTOE_V1.0\TICTACTOE_V1.0\FORMMAIN.RESX
^C:\USERS\MATZEE\DOCUMENTS\VISUAL STUDIO 2010\PROJECTS\TICTACTOE_V1.0\TICTACTOE_V1.0\FORMSETUP.RESX
^C:\USERS\MATZEE\DOCUMENTS\VISUAL STUDIO 2010\PROJECTS\TICTACTOE_V1.0\TICTACTOE_V1.0\PROPERTIES\RESOURCES.RESX
